Assignment-04/4.1_mux/testbench.vcd
$date
  Fri May 15 08:05:56 2026
$end
$version
  GHDL v0
$end
$timescale
  1 fs
$end
$scope module standard $end
$upscope $end
$scope module std_logic_1164 $end
$upscope $end
$scope module mux81_tb $end
$var reg 3 ! i0_81[2:0] $end
$var reg 3 " i1_81[2:0] $end
$var reg 3 # i2_81[2:0] $end
$var reg 3 $ i3_81[2:0] $end
$var reg 3 % i4_81[2:0] $end
$var reg 3 & i5_81[2:0] $end
$var reg 3 ' i6_81[2:0] $end
$var reg 3 ( i7_81[2:0] $end
$var reg 3 ) sel_81[2:0] $end
$var reg 3 * y_81[2:0] $end
$scope module multiplex $end
$var reg 3 + i0_81[2:0] $end
$var reg 3 , i1_81[2:0] $end
$var reg 3 - i2_81[2:0] $end
$var reg 3 . i3_81[2:0] $end
$var reg 3 / i4_81[2:0] $end
$var reg 3 0 i5_81[2:0] $end
$var reg 3 1 i6_81[2:0] $end
$var reg 3 2 i7_81[2:0] $end
$var reg 3 3 sel_81[2:0] $end
$var reg 3 4 y_81[2:0] $end
$var reg 3 5 mux1_out[2:0] $end
$var reg 3 6 mux2_out[2:0] $end
$var reg 1 7 not_s2 $end
$var reg 3 8 wire_and1[2:0] $end
$var reg 3 9 wire_and2[2:0] $end
$scope module mux1 $end
$var reg 3 : i0[2:0] $end
$var reg 3 ; i1[2:0] $end
$var reg 3 < i2[2:0] $end
$var reg 3 = i3[2:0] $end
$var reg 2 > sel[1:0] $end
$var reg 3 ? y[2:0] $end
$var reg 2 @ not_sel[1:0] $end
$var reg 3 A wire_and1[2:0] $end
$var reg 3 B wire_and2[2:0] $end
$var reg 3 C wire_and3[2:0] $end
$var reg 3 D wire_and4[2:0] $end
$scope module and_gate_assignment(0) $end
$scope module and_output1 $end
$var reg 1 E input1 $end
$var reg 1 F input2 $end
$var reg 1 G input3 $end
$var reg 1 H and_output $end
$var reg 1 I andgate $end
$upscope $end
$scope module and_output2 $end
$var reg 1 J input1 $end
$var reg 1 K input2 $end
$var reg 1 L input3 $end
$var reg 1 M and_output $end
$var reg 1 N andgate $end
$upscope $end
$scope module and_output3 $end
$var reg 1 O input1 $end
$var reg 1 P input2 $end
$var reg 1 Q input3 $end
$var reg 1 R and_output $end
$var reg 1 S andgate $end
$upscope $end
$scope module and_output4 $end
$var reg 1 T input1 $end
$var reg 1 U input2 $end
$var reg 1 V input3 $end
$var reg 1 W and_output $end
$var reg 1 X andgate $end
$upscope $end
$upscope $end
$scope module and_gate_assignment(1) $end
$scope module and_output1 $end
$var reg 1 Y input1 $end
$var reg 1 Z input2 $end
$var reg 1 [ input3 $end
$var reg 1 \ and_output $end
$var reg 1 ] andgate $end
$upscope $end
$scope module and_output2 $end
$var reg 1 ^ input1 $end
$var reg 1 _ input2 $end
$var reg 1 ` input3 $end
$var reg 1 a and_output $end
$var reg 1 b andgate $end
$upscope $end
$scope module and_output3 $end
$var reg 1 c input1 $end
$var reg 1 d input2 $end
$var reg 1 e input3 $end
$var reg 1 f and_output $end
$var reg 1 g andgate $end
$upscope $end
$scope module and_output4 $end
$var reg 1 h input1 $end
$var reg 1 i input2 $end
$var reg 1 j input3 $end
$var reg 1 k and_output $end
$var reg 1 l andgate $end
$upscope $end
$upscope $end
$scope module and_gate_assignment(2) $end
$scope module and_output1 $end
$var reg 1 m input1 $end
$var reg 1 n input2 $end
$var reg 1 o input3 $end
$var reg 1 p and_output $end
$var reg 1 q andgate $end
$upscope $end
$scope module and_output2 $end
$var reg 1 r input1 $end
$var reg 1 s input2 $end
$var reg 1 t input3 $end
$var reg 1 u and_output $end
$var reg 1 v andgate $end
$upscope $end
$scope module and_output3 $end
$var reg 1 w input1 $end
$var reg 1 x input2 $end
$var reg 1 y input3 $end
$var reg 1 z and_output $end
$var reg 1 { andgate $end
$upscope $end
$scope module and_output4 $end
$var reg 1 | input1 $end
$var reg 1 } input2 $end
$var reg 1 !" input3 $end
$var reg 1 "" and_output $end
$var reg 1 #" andgate $end
$upscope $end
$upscope $end
$scope module or_gate_assignment(0) $end
$scope module or_output $end
$var reg 1 $" input1 $end
$var reg 1 %" input2 $end
$var reg 1 &" input3 $end
$var reg 1 '" input4 $end
$var reg 1 (" or_result $end
$var reg 1 )" orgate $end
$upscope $end
$upscope $end
$scope module or_gate_assignment(1) $end
$scope module or_output $end
$var reg 1 *" input1 $end
$var reg 1 +" input2 $end
$var reg 1 ," input3 $end
$var reg 1 -" input4 $end
$var reg 1 ." or_result $end
$var reg 1 /" orgate $end
$upscope $end
$upscope $end
$scope module or_gate_assignment(2) $end
$scope module or_output $end
$var reg 1 0" input1 $end
$var reg 1 1" input2 $end
$var reg 1 2" input3 $end
$var reg 1 3" input4 $end
$var reg 1 4" or_result $end
$var reg 1 5" orgate $end
$upscope $end
$upscope $end
$upscope $end
$scope module mux2 $end
$var reg 3 6" i0[2:0] $end
$var reg 3 7" i1[2:0] $end
$var reg 3 8" i2[2:0] $end
$var reg 3 9" i3[2:0] $end
$var reg 2 :" sel[1:0] $end
$var reg 3 ;" y[2:0] $end
$var reg 2 <" not_sel[1:0] $end
$var reg 3 =" wire_and1[2:0] $end
$var reg 3 >" wire_and2[2:0] $end
$var reg 3 ?" wire_and3[2:0] $end
$var reg 3 @" wire_and4[2:0] $end
$scope module and_gate_assignment(0) $end
$scope module and_output1 $end
$var reg 1 A" input1 $end
$var reg 1 B" input2 $end
$var reg 1 C" input3 $end
$var reg 1 D" and_output $end
$var reg 1 E" andgate $end
$upscope $end
$scope module and_output2 $end
$var reg 1 F" input1 $end
$var reg 1 G" input2 $end
$var reg 1 H" input3 $end
$var reg 1 I" and_output $end
$var reg 1 J" andgate $end
$upscope $end
$scope module and_output3 $end
$var reg 1 K" input1 $end
$var reg 1 L" input2 $end
$var reg 1 M" input3 $end
$var reg 1 N" and_output $end
$var reg 1 O" andgate $end
$upscope $end
$scope module and_output4 $end
$var reg 1 P" input1 $end
$var reg 1 Q" input2 $end
$var reg 1 R" input3 $end
$var reg 1 S" and_output $end
$var reg 1 T" andgate $end
$upscope $end
$upscope $end
$scope module and_gate_assignment(1) $end
$scope module and_output1 $end
$var reg 1 U" input1 $end
$var reg 1 V" input2 $end
$var reg 1 W" input3 $end
$var reg 1 X" and_output $end
$var reg 1 Y" andgate $end
$upscope $end
$scope module and_output2 $end
$var reg 1 Z" input1 $end
$var reg 1 [" input2 $end
$var reg 1 \" input3 $end
$var reg 1 ]" and_output $end
$var reg 1 ^" andgate $end
$upscope $end
$scope module and_output3 $end
$var reg 1 _" input1 $end
$var reg 1 `" input2 $end
$var reg 1 a" input3 $end
$var reg 1 b" and_output $end
$var reg 1 c" andgate $end
$upscope $end
$scope module and_output4 $end
$var reg 1 d" input1 $end
$var reg 1 e" input2 $end
$var reg 1 f" input3 $end
$var reg 1 g" and_output $end
$var reg 1 h" andgate $end
$upscope $end
$upscope $end
$scope module and_gate_assignment(2) $end
$scope module and_output1 $end
$var reg 1 i" input1 $end
$var reg 1 j" input2 $end
$var reg 1 k" input3 $end
$var reg 1 l" and_output $end
$var reg 1 m" andgate $end
$upscope $end
$scope module and_output2 $end
$var reg 1 n" input1 $end
$var reg 1 o" input2 $end
$var reg 1 p" input3 $end
$var reg 1 q" and_output $end
$var reg 1 r" andgate $end
$upscope $end
$scope module and_output3 $end
$var reg 1 s" input1 $end
$var reg 1 t" input2 $end
$var reg 1 u" input3 $end
$var reg 1 v" and_output $end
$var reg 1 w" andgate $end
$upscope $end
$scope module and_output4 $end
$var reg 1 x" input1 $end
$var reg 1 y" input2 $end
$var reg 1 z" input3 $end
$var reg 1 {" and_output $end
$var reg 1 |" andgate $end
$upscope $end
$upscope $end
$scope module or_gate_assignment(0) $end
$scope module or_output $end
$var reg 1 }" input1 $end
$var reg 1 !# input2 $end
$var reg 1 "# input3 $end
$var reg 1 ## input4 $end
$var reg 1 $# or_result $end
$var reg 1 %# orgate $end
$upscope $end
$upscope $end
$scope module or_gate_assignment(1) $end
$scope module or_output $end
$var reg 1 &# input1 $end
$var reg 1 '# input2 $end
$var reg 1 (# input3 $end
$var reg 1 )# input4 $end
$var reg 1 *# or_result $end
$var reg 1 +# orgate $end
$upscope $end
$upscope $end
$scope module or_gate_assignment(2) $end
$scope module or_output $end
$var reg 1 ,# input1 $end
$var reg 1 -# input2 $end
$var reg 1 .# input3 $end
$var reg 1 /# input4 $end
$var reg 1 0# or_result $end
$var reg 1 1# orgate $end
$upscope $end
$upscope $end
$upscope $end
$scope module and_assignment1(0) $end
$scope module and1 $end
$var reg 1 2# input1 $end
$var reg 1 3# input2 $end
$var reg 1 4# input3 $end
$var reg 1 5# and_output $end
$var reg 1 6# andgate $end
$upscope $end
$scope module and2 $end
$var reg 1 7# input1 $end
$var reg 1 8# input2 $end
$var reg 1 9# input3 $end
$var reg 1 :# and_output $end
$var reg 1 ;# andgate $end
$upscope $end
$upscope $end
$scope module and_assignment1(1) $end
$scope module and1 $end
$var reg 1 <# input1 $end
$var reg 1 =# input2 $end
$var reg 1 ># input3 $end
$var reg 1 ?# and_output $end
$var reg 1 @# andgate $end
$upscope $end
$scope module and2 $end
$var reg 1 A# input1 $end
$var reg 1 B# input2 $end
$var reg 1 C# input3 $end
$var reg 1 D# and_output $end
$var reg 1 E# andgate $end
$upscope $end
$upscope $end
$scope module and_assignment1(2) $end
$scope module and1 $end
$var reg 1 F# input1 $end
$var reg 1 G# input2 $end
$var reg 1 H# input3 $end
$var reg 1 I# and_output $end
$var reg 1 J# andgate $end
$upscope $end
$scope module and2 $end
$var reg 1 K# input1 $end
$var reg 1 L# input2 $end
$var reg 1 M# input3 $end
$var reg 1 N# and_output $end
$var reg 1 O# andgate $end
$upscope $end
$upscope $end
$scope module or_assignment(0) $end
$scope module or1 $end
$var reg 1 P# input1 $end
$var reg 1 Q# input2 $end
$var reg 1 R# input3 $end
$var reg 1 S# input4 $end
$var reg 1 T# or_result $end
$var reg 1 U# orgate $end
$upscope $end
$upscope $end
$scope module or_assignment(1) $end
$scope module or1 $end
$var reg 1 V# input1 $end
$var reg 1 W# input2 $end
$var reg 1 X# input3 $end
$var reg 1 Y# input4 $end
$var reg 1 Z# or_result $end
$var reg 1 [# orgate $end
$upscope $end
$upscope $end
$scope module or_assignment(2) $end
$scope module or1 $end
$var reg 1 \# input1 $end
$var reg 1 ]# input2 $end
$var reg 1 ^# input3 $end
$var reg 1 _# input4 $end
$var reg 1 `# or_result $end
$var reg 1 a# orgate $end
$upscope $end
$upscope $end
$upscope $end
$upscope $end
$enddefinitions $end
#0
b000 !
b001 "
b010 #
b011 $
b100 %
b101 &
b110 '
b111 (
b000 )
b000 *
b000 +
b001 ,
b010 -
b011 .
b100 /
b101 0
b110 1
b111 2
b000 3
b000 4
b000 5
b100 6
17
b000 8
b000 9
b000 :
b001 ;
b010 <
b011 =
b00 >
b000 ?
b11 @
b000 A
b000 B
b000 C
b000 D
0E
1F
1G
0H
0I
1J
1K
0L
0M
0N
0O
0P
1Q
0R
0S
1T
0U
0V
0W
0X
0Y
1Z
1[
0\
0]
0^
1_
0`
0a
0b
1c
0d
1e
0f
0g
1h
0i
0j
0k
0l
0m
1n
1o
0p
0q
0r
1s
0t
0u
0v
0w
0x
1y
0z
0{
0|
0}
0!"
0""
0#"
0$"
0%"
0&"
0'"
0("
0)"
0*"
0+"
0,"
0-"
0."
0/"
00"
01"
02"
03"
04"
05"
b100 6"
b101 7"
b110 8"
b111 9"
b00 :"
b100 ;"
b11 <"
b100 ="
b000 >"
b000 ?"
b000 @"
0A"
1B"
1C"
0D"
0E"
1F"
1G"
0H"
0I"
0J"
0K"
0L"
1M"
0N"
0O"
1P"
0Q"
0R"
0S"
0T"
0U"
1V"
1W"
0X"
0Y"
0Z"
1["
0\"
0]"
0^"
1_"
0`"
1a"
0b"
0c"
1d"
0e"
0f"
0g"
0h"
1i"
1j"
1k"
1l"
1m"
1n"
1o"
0p"
0q"
0r"
1s"
0t"
1u"
0v"
0w"
1x"
0y"
0z"
0{"
0|"
0}"
0!#
0"#
0##
0$#
0%#
0&#
0'#
0(#
0)#
0*#
0+#
1,#
0-#
0.#
0/#
10#
11#
02#
13#
14#
05#
06#
07#
08#
09#
0:#
0;#
0<#
1=#
1>#
0?#
0@#
0A#
0B#
0C#
0D#
0E#
0F#
1G#
1H#
0I#
0J#
1K#
0L#
0M#
0N#
0O#
0P#
0Q#
0R#
0S#
0T#
0U#
0V#
0W#
0X#
0Y#
0Z#
0[#
0\#
0]#
0^#
0_#
0`#
0a#
#10000000
b001 )
b001 *
b001 3
b001 4
b001 5
b101 6
b001 8
b01 >
b001 ?
b10 @
b001 B
0G
1L
1M
1N
0Q
1V
0[
1`
0e
1j
0o
1t
0y
1!"
1%"
1("
1)"
b01 :"
b101 ;"
b10 <"
b000 ="
b101 >"
0C"
1H"
1I"
1J"
0M"
1R"
0W"
1\"
0a"
1f"
0k"
0l"
0m"
1p"
1q"
1r"
0u"
1z"
1!#
1$#
1%#
0,#
1-#
12#
15#
16#
17#
1P#
1T#
1U#
#20000000
b010 )
b010 *
b010 3
b010 4
b010 5
b110 6
b010 8
b10 >
b010 ?
b01 @
b000 B
b010 C
0F
1G
0K
0L
0M
0N
1P
1Q
1U
0V
0Z
1[
0_
0`
1d
1e
1f
1g
1i
0j
0n
1o
0s
0t
1x
1y
1}
0!"
0%"
0("
0)"
1,"
1."
1/"
b10 :"
b110 ;"
b01 <"
b000 >"
b110 ?"
0B"
1C"
0G"
0H"
0I"
0J"
1L"
1M"
1Q"
0R"
0V"
1W"
0["
0\"
1`"
1a"
1b"
1c"
1e"
0f"
0j"
1k"
0o"
0p"
0q"
0r"
1t"
1u"
1v"
1w"
1y"
0z"
0!#
0$#
0%#
1(#
1*#
1+#
0-#
1.#
10#
11#
02#
05#
06#
07#
1<#
1?#
1@#
1A#
1K#
0P#
0T#
0U#
1V#
1Z#
1[#
#30000000
b011 )
b011 *
b011 3
b011 4
b011 5
b111 6
b011 8
b11 >
b011 ?
b00 @
b000 C
b011 D
0G
1L
0Q
1V
1W
1X
0[
1`
0e
0f
0g
1j
1k
1l
0o
1t
0y
1!"
1'"
1("
1)"
0,"
1-"
b11 :"
b111 ;"
b00 <"
b000 ?"
b111 @"
0C"
1H"
0M"
1R"
1S"
1T"
0W"
1\"
0a"
0b"
0c"
1f"
1g"
1h"
0k"
1p"
0u"
0v"
0w"
1z"
1{"
1|"
1##
1$#
1%#
0(#
1)#
0.#
1/#
12#
15#
16#
17#
1P#
1T#
1U#
#40000000
b100 )
b100 *
b100 3
b100 4
b000 5
b100 6
07
b000 8
b100 9
b00 >
b000 ?
b11 @
b000 D
1F
1G
1K
0L
0P
1Q
0U
0V
0W
0X
1Z
1[
1_
0`
0d
1e
0i
0j
0k
0l
1n
1o
1s
0t
0x
1y
0}
0!"
0'"
0("
0)"
0-"
0."
0/"
b00 :"
b100 ;"
b11 <"
b100 ="
b000 @"
1B"
1C"
1G"
0H"
0L"
1M"
0Q"
0R"
0S"
0T"
1V"
1W"
1["
0\"
0`"
1a"
0e"
0f"
0g"
0h"
1j"
1k"
1l"
1m"
1o"
0p"
0t"
1u"
0y"
0z"
0{"
0|"
0##
0$#
0%#
0)#
0*#
0+#
1,#
0/#
10#
11#
02#
03#
04#
05#
06#
07#
18#
19#
0:#
0;#
0<#
0=#
0>#
0?#
0@#
0A#
1B#
1C#
0D#
0E#
0G#
0H#
1K#
1L#
1M#
1N#
1O#
0P#
0Q#
0R#
0S#
0T#
0U#
0V#
0W#
0X#
0Y#
0Z#
0[#
1]#
1^#
1_#
1`#
1a#
#50000000
b101 )
b101 *
b101 3
b101 4
b001 5
b101 6
b101 9
b01 >
b001 ?
b10 @
b001 B
0G
1L
1M
1N
0Q
1V
0[
1`
0e
1j
0o
1t
0y
1!"
1%"
1("
1)"
b01 :"
b101 ;"
b10 <"
b000 ="
b101 >"
0C"
1H"
1I"
1J"
0M"
1R"
0W"
1\"
0a"
1f"
0k"
0l"
0m"
1p"
1q"
1r"
0u"
1z"
1!#
1$#
1%#
0,#
1-#
12#
17#
1:#
1;#
1Q#
1R#
1S#
1T#
1U#
#60000000
b110 )
b110 *
b110 3
b110 4
b010 5
b110 6
b110 9
b10 >
b010 ?
b01 @
b000 B
b010 C
0F
1G
0K
0L
0M
0N
1P
1Q
1U
0V
0Z
1[
0_
0`
1d
1e
1f
1g
1i
0j
0n
1o
0s
0t
1x
1y
1}
0!"
0%"
0("
0)"
1,"
1."
1/"
b10 :"
b110 ;"
b01 <"
b000 >"
b110 ?"
0B"
1C"
0G"
0H"
0I"
0J"
1L"
1M"
1Q"
0R"
0V"
1W"
0["
0\"
1`"
1a"
1b"
1c"
1e"
0f"
0j"
1k"
0o"
0p"
0q"
0r"
1t"
1u"
1v"
1w"
1y"
0z"
0!#
0$#
0%#
1(#
1*#
1+#
0-#
1.#
10#
11#
02#
07#
0:#
0;#
1<#
1A#
1D#
1E#
1K#
1N#
1O#
0Q#
0R#
0S#
0T#
0U#
1W#
1X#
1Y#
1Z#
1[#
1]#
1^#
1_#
1`#
1a#
#70000000
b111 )
b111 *
b111 3
b111 4
b011 5
b111 6
b111 9
b11 >
b011 ?
b00 @
b000 C
b011 D
0G
1L
0Q
1V
1W
1X
0[
1`
0e
0f
0g
1j
1k
1l
0o
1t
0y
1!"
1'"
1("
1)"
0,"
1-"
b11 :"
b111 ;"
b00 <"
b000 ?"
b111 @"
0C"
1H"
0M"
1R"
1S"
1T"
0W"
1\"
0a"
0b"
0c"
1f"
1g"
1h"
0k"
1p"
0u"
0v"
0w"
1z"
1{"
1|"
1##
1$#
1%#
0(#
1)#
0.#
1/#
12#
17#
1:#
1;#
1Q#
1R#
1S#
1T#
1U#
